SGC-X - 3 Hypothesis Testing
…
CODE

#:::::::: INTERPRET COEFFICIENTS

paste("LOG ODDS")

[1] "LOG ODDS"

CODE

tidy(m,   conf.int = TRUE, conf.level = 0.95, conf.method = "Wald")

# A tibble: 22 × 9
   effect group term     estimate std.error statistic p.value conf.low conf.high
   <chr>  <chr> <chr>       <dbl>     <dbl>     <dbl>   <dbl>    <dbl>     <dbl>
 1 fixed  <NA>  (Interc…   -0.929     0.409    -2.27  0.0231  -1.73       -0.127
 2 fixed  <NA>  pretty_…    0.873     0.586     1.49  0.136   -0.276       2.02 
 3 fixed  <NA>  pretty_…    0.387     0.561     0.690 0.490   -0.713       1.49 
 4 fixed  <NA>  pretty_…    0.408     0.573     0.713 0.476   -0.714       1.53 
 5 fixed  <NA>  pretty_…    1.49      0.534     2.78  0.00540  0.440       2.53 
 6 fixed  <NA>  orderLM…   -0.871     0.631    -1.38  0.167   -2.11        0.365
 7 fixed  <NA>  scenari…    1.13      0.581     1.94  0.0520  -0.00968     2.27 
 8 fixed  <NA>  pretty_…    0.482     0.845     0.571 0.568   -1.17        2.14 
 9 fixed  <NA>  pretty_…    1.97      0.858     2.29  0.0219   0.286       3.65 
10 fixed  <NA>  pretty_…    1.68      0.859     1.95  0.0511  -0.00768     3.36 
# … with 12 more rows

CODE

paste("ODDS RATIOS")

[1] "ODDS RATIOS"

CODE

tidy(m,   conf.int = TRUE, conf.level = 0.95, conf.method = "Wald", exponentiate = TRUE)

# A tibble: 22 × 9
   effect group term     estimate std.error statistic p.value conf.low conf.high
   <chr>  <chr> <chr>       <dbl>     <dbl>     <dbl>   <dbl>    <dbl>     <dbl>
 1 fixed  <NA>  (Interc…    0.395     0.162    -2.27  0.0231     0.177     0.880
 2 fixed  <NA>  pretty_…    2.39      1.40      1.49  0.136      0.759     7.55 
 3 fixed  <NA>  pretty_…    1.47      0.826     0.690 0.490      0.490     4.42 
 4 fixed  <NA>  pretty_…    1.50      0.862     0.713 0.476      0.490     4.62 
 5 fixed  <NA>  pretty_…    4.42      2.36      2.78  0.00540    1.55     12.6  
 6 fixed  <NA>  orderLM…    0.419     0.264    -1.38  0.167      0.122     1.44 
 7 fixed  <NA>  scenari…    3.09      1.80      1.94  0.0520     0.990     9.65 
 8 fixed  <NA>  pretty_…    1.62      1.37      0.571 0.568      0.309     8.48 
 9 fixed  <NA>  pretty_…    7.15      6.13      2.29  0.0219     1.33     38.4  
10 fixed  <NA>  pretty_…    5.34      4.58      1.95  0.0511     0.992    28.7  
# … with 12 more rows
…
CODE

#join predictions to the new dataframe
preds <- cbind(newdata, preds)
#summarize
(summ_preds <- preds %>% 
  dplyr::select(graph, pretty_condition, scenario, order, fit, lwr, upr) %>% 
  group_by(graph, pretty_condition, scenario, order) %>% 
  dplyr::summarise(
    median = median(fit),
    lower = median(lwr),
    upper = median(upr)
  )) 

# A tibble: 40 × 7
# Groups:   graph, pretty_condition, scenario [20]
   graph  pretty_condition scenario order    median lower upper
   <fct>  <fct>            <fct>    <fct>     <dbl> <dbl> <dbl>
 1 linear control          axis     TM-First  0.773 0.484 0.927
 2 linear control          axis     LM-First  0.766 0.473 0.923
 3 linear control          longmire TM-First  0.747 0.448 0.915
 4 linear control          longmire LM-First  0.738 0.436 0.911
 5 linear text:what        axis     TM-First  0.783 0.495 0.930
 6 linear text:what        axis     LM-First  0.777 0.489 0.928
 7 linear text:what        longmire TM-First  0.757 0.460 0.919
 8 linear text:what        longmire LM-First  0.750 0.449 0.917
 9 linear text:how         axis     TM-First  0.773 0.483 0.925
10 linear text:how         axis     LM-First  0.765 0.472 0.923
# … with 30 more rows
…
(p <- preds %>%
  group_by(pretty_condition, drawing_type ) %>%
  dplyr::summarise(
    median = median(preds),
    se = sd(preds)/sqrt(n()),
    lwr = median - 1.96*se,
    upr = median + 1.96*se))

# A tibble: 25 × 6
# Groups:   pretty_condition [5]
   pretty_condition drawing_type               median    se      lwr      upr
   <fct>            <chr>                       <dbl> <dbl>    <dbl>    <dbl>
 1 control          Linear Model             9.83e- 2     0 9.83e- 2 9.83e- 2
 2 control          Scatterplot              1.64e- 2     0 1.64e- 2 1.64e- 2
 3 control          Triangular               5.57e- 1     0 5.57e- 1 5.57e- 1
 4 control          Triangular (asymmetric)  4.92e- 2     0 4.92e- 2 4.92e- 2
 5 control          Triangular (right angle) 2.79e- 1     0 2.79e- 1 2.79e- 1
 6 text:what        Linear Model             1.10e- 8     0 1.10e- 8 1.10e- 8
 7 text:what        Scatterplot              2.17e-10     0 2.17e-10 2.17e-10
 8 text:what        Triangular               8.47e- 1     0 8.47e- 1 8.47e- 1
 9 text:what        Triangular (asymmetric)  5.08e- 2     0 5.08e- 2 5.08e- 2
10 text:what        Triangular (right angle) 1.02e- 1     0 1.02e- 1 1.02e- 1
# … with 15 more rows
…
